{
  "images" : [
    {
      "filename" : "kisspng-logo-shopping-cart-product-design-5b680319bc95d1.4570981015335431937725.png",
      "idiom" : "universal",
      "scale" : "1x"
    },
    {
      "idiom" : "universal",
      "scale" : "2x"
    },
    {
      "idiom" : "universal",
      "scale" : "3x"
    }
  ],
  "info" : {
    "author" : "xcode",
    "version" : 1
  }
}
